module gopractise

go 1.17

require (
	github.com/gin-gonic/gin v1.7.2
	github.com/go-sql-driver/mysql v1.6.0
	github.com/rs/zerolog v1.26.1
	gopkg.in/yaml.v2 v2.2.8
)

require (
	github.com/gin-contrib/cors v1.3.1 // indirect
	github.com/gin-contrib/sse v0.1.0 // indirect
	github.com/go-playground/locales v0.13.0 // indirect
	github.com/go-playground/universal-translator v0.17.0 // indirect
	github.com/go-playground/validator/v10 v10.4.1 // indirect
	github.com/golang/protobuf v1.3.3 // indirect
	github.com/json-iterator/go v1.1.9 // indirect
	github.com/leodido/go-urn v1.2.0 // indirect
	github.com/mattn/go-isatty v0.0.12 // indirect
	github.com/modern-go/concurrent v0.0.0-20180228061459-e0a39a4cb421 // indirect
	github.com/modern-go/reflect2 v0.0.0-20180701023420-4b7aa43c6742 // indirect
	github.com/robfig/cron/v3 v3.0.1 // indirect
	github.com/ugorji/go/codec v1.1.7 // indirect
	golang.org/x/crypto v0.0.0-20211215165025-cf75a172585e // indirect
	golang.org/x/sys v0.0.0-20210809222454-d867a43fc93e // indirect
)
